…
gm_search
```
># A tibble: 1 x 5
  song_id song_name    song_lyrics_url                                   artist_id artist_name
    <int> <chr>        <chr>                                                 <int> <chr>      
1    1428 Good Morning https://genius.com/Kanye-west-good-morning-lyrics        72 Kanye West 

```
# get lyrics
gm_lyrics <- scrape_lyrics_id(song_id = gm_search$song_id)
gm_lyrics
```
># A tibble: 53 x 5
   line                                            song_id song_name    artist_id artist_name
   <chr>                                             <int> <chr>            <int> <chr>      
 1 Uhh.. uhh                                          1428 Good Morning        72 Kanye West 
 2 Uhh.. uhh                                          1428 Good Morning        72 Kanye West 
 3 Good morning!                                      1428 Good Morning        72 Kanye West 
 4 Good morning!                                      1428 Good Morning        72 Kanye West 
 5 Good morning!                                      1428 Good Morning        72 Kanye West 
 6 Good morning!                                      1428 Good Morning        72 Kanye West 
 7 Wake up Mr. West, Mr. West                         1428 Good Morning        72 Kanye West 
 8 Mr. Fresh, Mister, by himself he's so impressed    1428 Good Morning        72 Kanye West 
 9 I mean damn, did you even see the test?            1428 Good Morning        72 Kanye West 
10 You got D's, muthafucka D's, Rosie Perez           1428 Good Morning        72 Kanye West 
# ... with 43 more rows
…
```
grandma <-search_song(search_term = "grandma got run over by a reindeer")  %>%
    filter(artist_id == 289481)
grandma$song_lyrics_url

```
>[1] "https://genius.com/Elmo-and-patsy-grandma-got-run-over-by-a-reindeer-lyrics"

Now I have a url for the lyrics I can try to get the lyrics using the `scrape_lyrics_url` function

```

scrape_lyrics_url(song_lyrics_url = "https://genius.com/Elmo-and-patsy-grandma-got-run-over-by-a-reindeer-lyrics")
```
># A tibble: 60 x 4
   line                          song_lyrics_url                                        song_name                 artist_name
   <chr>                         <chr>                                                  <chr>                     <chr>      
 1 Grandma got runned over by a… https://genius.com/Elmo-and-patsy-grandma-got-run-ove… Grandma Got Run Over by … Elmo & Pat…
 2 Walking home from our house … https://genius.com/Elmo-and-patsy-grandma-got-run-ove… Grandma Got Run Over by … Elmo & Pat…
 3 You can say there's no such … https://genius.com/Elmo-and-patsy-grandma-got-run-ove… Grandma Got Run Over by … Elmo & Pat…
 4 But as for me and Grandpa, w… https://genius.com/Elmo-and-patsy-grandma-got-run-ove… Grandma Got Run Over by … Elmo & Pat…
 5 She'd been drinkin' too much… https://genius.com/Elmo-and-patsy-grandma-got-run-ove… Grandma Got Run Over by … Elmo & Pat…
 6 And we'd begged her not to go https://genius.com/Elmo-and-patsy-grandma-got-run-ove… Grandma Got Run Over by … Elmo & Pat…
 7 But she'd left her medication https://genius.com/Elmo-and-patsy-grandma-got-run-ove… Grandma Got Run Over by … Elmo & Pat…
 8 So she stumbled out the door… https://genius.com/Elmo-and-patsy-grandma-got-run-ove… Grandma Got Run Over by … Elmo & Pat…
 9 When they found her Christma… https://genius.com/Elmo-and-patsy-grandma-got-run-ove… Grandma Got Run Over by … Elmo & Pat…
10 At the scene of the attack    https://genius.com/Elmo-and-patsy-grandma-got-run-ove… Grandma Got Run Over by … Elmo & Pat…
# ... with 50 more rows
…
